<?xml version="1.0" encoding="UTF-8" standalone="no"?>
<svg
   xmlns:dc="http://purl.org/dc/elements/1.1/"
   xmlns:cc="http://creativecommons.org/ns#"
   xmlns:rdf="http://www.w3.org/1999/02/22-rdf-syntax-ns#"
   xmlns:svg="http://www.w3.org/2000/svg"
   xmlns="http://www.w3.org/2000/svg"
   xmlns:sodipodi="http://sodipodi.sourceforge.net/DTD/sodipodi-0.dtd"
   xmlns:inkscape="http://www.inkscape.org/namespaces/inkscape"
   viewBox="0 0 98.34 206"
   version="1.1"
   id="svg30"
   sodipodi:docname="fc.svg"
   inkscape:version="1.0.2 (e86c870879, 2021-01-15, custom)">
  <metadata
     id="metadata36">
    <rdf:RDF>
      <cc:Work
         rdf:about="">
        <dc:format>image/svg+xml</dc:format>
        <dc:type
           rdf:resource="http://purl.org/dc/dcmitype/StillImage" />
      </cc:Work>
    </rdf:RDF>
  </metadata>
  <defs
     id="defs34" />
  <sodipodi:namedview
     pagecolor="#ffffff"
     bordercolor="#666666"
     borderopacity="1"
     objecttolerance="10"
     gridtolerance="10"
     guidetolerance="10"
     inkscape:pageopacity="0"
     inkscape:pageshadow="2"
     inkscape:window-width="1920"
     inkscape:window-height="1051"
     id="namedview32"
     showgrid="false"
     inkscape:zoom="3.5679612"
     inkscape:cx="-51.541113"
     inkscape:cy="103"
     inkscape:window-x="-9"
     inkscape:window-y="2151"
     inkscape:window-maximized="1"
     inkscape:current-layer="svg30" />
  <path
     d="m 19.38,74.64 -2.3,-0.92 -2.23,-1.5 -2.11,-2.08 -2,-2.61 L 9,64.43 7.45,60.89 6.15,57 5.15,52.79 4.39,48.34 3.94,43.73 3.75,39 l 0.16,-4.7 0.45,-4.59 0.76,-4.46 1,-4.22 1.31,-3.91 1.57,-3.53 1.77,-3.1 2,-2.61 2.11,-2.08 2.23,-1.52 2.3,-0.92 2.34,-0.31 2.34,0.31 2.31,0.92 2.2,1.52 2.11,2.08 1.95,2.61 1.78,3.1 1.56,3.53 1.29,3.88 1,4.22 0.75,4.46 0.47,4.59 0.15,4.7 -0.15,4.7 -0.47,4.61 -0.75,4.45 -1,4.21 -1.29,3.95 -1.55,3.54 -1.78,3.1 -1.95,2.61 -2.11,2.08 -2.23,1.5 -2.31,0.92 -2.34,0.31 z M 33.86,39 l -0.1,-3.16 -0.31,-3.12 -0.51,-3 -0.7,-2.84 -0.88,-2.65 -1.05,-2.39 -1.2,-2.09 -1.32,-1.75 -1.42,-1.41 -1.5,-1 -1.57,-0.63 -1.08,-0.13 -0.5,-0.07 h -0.11 l -1.47,0.18 -1.56,0.63 -1.5,1 -1.42,1.43 -1.33,1.76 -1.19,2.09 -1.05,2.39 -0.87,2.65 -0.71,2.84 -0.52,3 -0.3,3.12 -0.1,3.15 0.1,3.18 0.3,3.11 0.52,3 0.71,2.86 0.87,2.63 1.05,2.39 1.19,2.09 1.33,1.74 1.42,1.41 1.5,1 1.56,0.61 1.47,0.2 h 0.11 l 0.5,-0.06 1.08,-0.15 1.57,-0.61 1.5,-1 1.42,-1.4 1.32,-1.76 1.2,-2.09 1.05,-2.39 0.88,-2.63 0.7,-2.86 0.51,-3 0.31,-3.11 z"
     fill="#ecf0f1"
     id="path2" />
  <path
     d="M 29.47,39 V 37.24 L 29.29,35.5 29,33.84 l -0.39,-1.6 -0.48,-1.47 -0.6,-1.32 -0.66,-1.18 -0.72,-1 L 25.34,26.49 24.47,26 23.6,25.64 23,25.51 H 22.76 22.61 L 21.87,25.6 21,26 l -0.84,0.56 -0.79,0.78 -0.75,1 -0.66,1.18 -0.58,1.32 -0.5,1.47 -0.39,1.6 -0.29,1.66 -0.2,1.67 V 39 l 0.06,1.77 0.16,1.73 0.29,1.68 0.39,1.58 0.5,1.47 0.58,1.34 0.66,1.16 0.75,1 0.79,0.78 0.84,0.58 0.85,0.34 0.74,0.09 H 22.76 23 l 0.65,-0.08 0.87,-0.34 0.82,-0.58 0.81,-0.78 0.72,-1 0.66,-1.16 0.6,-1.34 0.48,-1.47 0.39,-1.58 0.29,-1.68 0.18,-1.73 z m -9.91,-23.44 1.57,-0.63 1.09,-0.13 1.08,0.13 1.57,0.63 1.5,1 1.42,1.44 1.32,1.76 1.2,2.09 1.05,2.39 0.88,2.65 0.7,2.84 0.51,3 0.31,3.12 0.1,3.16 -0.1,3.18 -0.31,3.11 -0.51,3 -0.7,2.86 -0.88,2.63 -1.05,2.39 -1.2,2.09 -1.32,1.73 -1.42,1.41 -1.5,1 -1.57,0.61 -1.08,0.15 -1.09,-0.15 -1.57,-0.61 -1.5,-1 -1.42,-1.41 -1.32,-1.76 -1.2,-2.09 -1,-2.39 -0.88,-2.63 -0.71,-2.86 -0.51,-3 -0.31,-3.11 -0.1,-3.18 0.1,-3.16 0.29,-3.1 0.51,-3 0.71,-2.84 0.88,-2.65 1,-2.39 1.2,-2.09 1.34,-1.75 1.42,-1.41 z"
     fill="#ecf0f1"
     id="path4" />
  <path
     d="M 29.42,37.24 29.24,35.5 29,33.84 l -0.39,-1.6 -0.48,-1.47 -0.6,-1.32 -0.66,-1.18 -0.72,-1 L 25.34,26.49 24.47,26 23.6,25.64 23,25.51 l -0.63,0.08 -0.87,0.36 -0.84,0.56 -0.79,0.78 -0.74,1 -0.66,1.18 -0.58,1.32 -0.49,1.47 -0.4,1.6 -0.28,1.66 -0.17,1.74 -0.1,1.74 0.05,1.77 0.17,1.73 0.28,1.68 0.4,1.58 0.49,1.47 0.58,1.34 0.66,1.16 0.74,1 0.79,0.78 0.84,0.58 0.87,0.34 0.63,0.08 0.65,-0.08 0.87,-0.34 0.82,-0.58 0.81,-0.78 0.72,-1 0.66,-1.16 0.6,-1.34 0.48,-1.47 0.39,-1.58 0.29,-1.68 0.18,-1.73 V 39 Z m -4.24,2.29 -0.05,0.5 -0.08,0.5 -0.12,0.47 -0.14,0.44 -0.18,0.38 -0.19,0.36 -0.21,0.29 -0.24,0.22 -0.25,0.18 -0.21,0.1 h -0.26 -0.28 l -0.24,-0.1 -0.26,-0.18 -0.22,-0.22 -0.23,-0.29 -0.19,-0.36 -0.18,-0.38 -0.14,-0.44 -0.12,-0.47 -0.08,-0.5 -0.05,-0.5 v -1 l 0.05,-0.51 0.08,-0.5 0.12,-0.47 0.14,-0.44 0.18,-0.38 0.19,-0.34 0.23,-0.29 0.22,-0.24 0.26,-0.17 0.24,-0.11 h 0.28 0.26 l 0.22,0.1 0.25,0.17 0.24,0.24 0.21,0.29 0.19,0.34 0.18,0.38 0.14,0.44 0.12,0.47 0.08,0.5 0.05,0.51 v 0.52 z"
     fill="#ecf0f1"
     id="path6" />
  <g
     fill="none"
     id="g28"
     transform="translate(0,-64)">
    <path
       d="m 33.86,103 -0.1,-3.16 -0.31,-3.12 -0.51,-3.01 -0.7,-2.84 -0.88,-2.65 -1.05,-2.39 -1.2,-2.09 -1.32,-1.76 -1.42,-1.41 -1.5,-1.01 -1.57,-0.63 -1.08,-0.13 -0.5,-0.07 -0.11,0.02 -1.47,0.18 -1.56,0.63 -1.5,1.01 -1.42,1.41 -1.33,1.76 -1.19,2.09 -1.05,2.39 -0.87,2.65 -0.71,2.84 -0.52,3.01 -0.3,3.12 -0.1,3.16 0.1,3.18 0.3,3.11 0.52,3 0.71,2.86 0.87,2.63 1.05,2.39 1.19,2.09 1.33,1.76 1.42,1.41 1.5,1.03 1.56,0.61 1.47,0.2 0.11,0.01 0.5,-0.06 1.08,-0.15 1.57,-0.61 1.5,-1.03 1.42,-1.41 1.32,-1.76 1.2,-2.09 1.05,-2.39 0.88,-2.63 0.7,-2.86 0.51,-3 0.31,-3.11 z"
       stroke="#000000"
       stroke-linecap="round"
       stroke-linejoin="round"
       stroke-width="0.75"
       id="path8" />
    <path
       d="m 29.47,103 -0.05,-1.76 -0.18,-1.74 -0.29,-1.66 -0.39,-1.6 -0.48,-1.47 -0.6,-1.32 -0.66,-1.18 -0.72,-0.98 -0.81,-0.78 -0.82,-0.56 -0.88,-0.36 -0.64,-0.08 -0.24,-0.03 -0.15,0.02 -0.74,0.09 -0.86,0.36 -0.83,0.56 -0.79,0.78 -0.75,0.98 -0.66,1.18 -0.58,1.32 -0.5,1.47 -0.39,1.6 -0.29,1.66 -0.16,1.74 -0.06,1.76 0.06,1.78 0.16,1.72 0.29,1.68 0.39,1.58 0.5,1.47 0.58,1.34 0.66,1.16 0.75,0.98 0.79,0.78 0.83,0.58 0.86,0.34 0.74,0.09 0.15,0.02 0.24,-0.03 0.64,-0.08 0.88,-0.34 0.82,-0.58 0.81,-0.78 0.72,-0.98 0.66,-1.16 0.6,-1.34 0.48,-1.47 0.39,-1.58 0.29,-1.68 0.18,-1.72 z"
       stroke="#000000"
       stroke-linecap="round"
       stroke-linejoin="round"
       stroke-width="0.75"
       id="path10" />
    <path
       d="m 22.22,127.22 -1.09,-0.15 -1.57,-0.61 -1.5,-1.03 -1.42,-1.41 -1.32,-1.76 -1.2,-2.09 -1.04,-2.39 -0.88,-2.63 -0.71,-2.86 -0.51,-3 -0.31,-3.11 -0.1,-3.18 0.1,-3.16 0.31,-3.12 0.51,-3.01 0.71,-2.84 0.88,-2.65 1.04,-2.39 1.2,-2.09 1.32,-1.76 1.42,-1.41 1.5,-1.01 1.57,-0.63 1.09,-0.13"
       stroke="#000000"
       stroke-linecap="round"
       stroke-linejoin="round"
       stroke-width="0.75"
       id="path12" />
    <path
       d="m 22.95,116.49 -0.63,-0.08 -0.87,-0.34 -0.84,-0.58 -0.79,-0.78 -0.74,-0.98 -0.66,-1.16 -0.58,-1.34 -0.49,-1.47 -0.4,-1.58 -0.28,-1.68 -0.17,-1.72 -0.05,-1.78 0.05,-1.76 0.17,-1.74 0.28,-1.66 0.4,-1.6 0.49,-1.47 0.58,-1.32 0.66,-1.18 0.74,-0.98 0.79,-0.78 0.84,-0.56 0.87,-0.36 0.63,-0.08"
       stroke="#000000"
       stroke-linecap="round"
       stroke-linejoin="round"
       stroke-width="0.75"
       id="path14" />
    <path
       d="m 23.69,106.87 h 0.03 l 0.25,-0.18 0.24,-0.22 0.21,-0.29 0.19,-0.36 0.18,-0.38 0.14,-0.44 0.12,-0.47 0.08,-0.5 0.05,-0.5 0.03,-0.53"
       stroke="#000000"
       stroke-linecap="round"
       stroke-linejoin="round"
       stroke-width="0.75"
       id="path16" />
    <path
       d="m 25.21,103 -0.03,-0.52 -0.05,-0.51 -0.08,-0.5 -0.12,-0.47 -0.14,-0.44 -0.18,-0.38 -0.19,-0.34 -0.21,-0.29 -0.24,-0.24 -0.25,-0.17 -0.03,-0.01 -0.22,-0.1 -0.26,-0.03 -0.28,0.03 -0.24,0.11 -0.26,0.17 -0.22,0.24 -0.23,0.29 -0.19,0.34 -0.18,0.38 -0.15,0.44 -0.11,0.47 -0.08,0.5 -0.05,0.51 -0.01,0.52 0.01,0.53 0.05,0.5 0.08,0.5 0.11,0.47 0.15,0.44 0.18,0.38 0.19,0.36 0.23,0.29 0.22,0.22 0.26,0.18 0.24,0.1 0.28,0.03 0.26,-0.03 0.21,-0.1"
       stroke="#000000"
       stroke-linecap="round"
       stroke-linejoin="round"
       stroke-width="0.75"
       id="path18" />
    <path
       d="m 23.69,106.87 h -0.01 l -0.26,-0.18 -0.23,-0.22 -0.22,-0.29 -0.2,-0.36 -0.18,-0.38 -0.14,-0.44 -0.11,-0.47 -0.08,-0.5 -0.05,-0.5 -0.02,-0.53 0.02,-0.52 0.05,-0.51 0.08,-0.5 0.11,-0.47 0.14,-0.44 0.18,-0.38 0.2,-0.34 0.22,-0.29 0.23,-0.24 0.26,-0.17 0.01,-0.01"
       stroke="#000000"
       stroke-linecap="round"
       stroke-linejoin="round"
       stroke-width="0.75"
       id="path20" />
    <path
       d="m 21.72,138.95 2.34,-0.31 2.31,-0.92 2.23,-1.5 2.11,-2.08 1.95,-2.61 1.78,-3.1 1.55,-3.54 1.3,-3.92 1.04,-4.21 0.75,-4.45 0.47,-4.62 0.15,-4.69 -0.15,-4.69 -0.47,-4.6 -0.75,-4.46 -1.04,-4.22 -1.3,-3.91 -1.55,-3.53 -1.78,-3.1 -1.95,-2.61 -2.11,-2.08 -2.23,-1.52 -2.31,-0.92 -2.34,-0.31 -2.34,0.31 -2.3,0.92 -2.23,1.52 -2.11,2.08 -1.96,2.61 -1.77,3.1 -1.55,3.53 -1.31,3.91 -1.03,4.22 -0.76,4.46 -0.45,4.6 -0.16,4.69 0.16,4.69 0.45,4.62 0.76,4.45 1.03,4.21 1.31,3.92 1.55,3.54 1.77,3.1 1.96,2.61 2.11,2.08 2.23,1.5 2.3,0.92 2.34,0.31 h 51.57 1.66 1.66 l 2.34,-0.31 2.31,-0.92 2.22,-1.5 2.12,-2.08 1.95,-2.61 1.78,-3.1 1.54,-3.54 1.31,-3.92 1.03,-4.21 0.76,-4.45 0.45,-4.62 0.16,-4.69 -0.16,-4.69 -0.45,-4.6 -0.76,-4.46 -1.03,-4.22 -1.31,-3.91 -1.54,-3.53 -1.78,-3.1 L 85.6,71.88 83.48,69.8 81.26,68.28 78.95,67.36 76.61,67.05 H 74.95 73.29 21.72"
       stroke="#000000"
       stroke-linecap="round"
       stroke-linejoin="round"
       stroke-width="1.5"
       id="path22" />
    <path
       d="M 3,3 H 95.34 V 203 H 3 Z"
       id="path24" />
    <path
       d="M 0,0 H 98.34 V 206 H 0 Z"
       id="path26" />
  </g>
</svg>
