<?xml version="1.0" encoding="UTF-8" standalone="no"?>
<svg
   xmlns:dc="http://purl.org/dc/elements/1.1/"
   xmlns:cc="http://creativecommons.org/ns#"
   xmlns:rdf="http://www.w3.org/1999/02/22-rdf-syntax-ns#"
   xmlns:svg="http://www.w3.org/2000/svg"
   xmlns="http://www.w3.org/2000/svg"
   xmlns:sodipodi="http://sodipodi.sourceforge.net/DTD/sodipodi-0.dtd"
   xmlns:inkscape="http://www.inkscape.org/namespaces/inkscape"
   viewBox="0 0 106 106"
   version="1.1"
   id="svg885"
   sodipodi:docname="pig.svg"
   inkscape:version="1.0.2 (e86c870879, 2021-01-15, custom)"
   inkscape:export-filename="C:\Users\marco.pitruzzella\Git\symbols\vacuum\GAUGES\vgf\pig@32.png"
   inkscape:export-xdpi="32"
   inkscape:export-ydpi="32">
  <metadata
     id="metadata891">
    <rdf:RDF>
      <cc:Work
         rdf:about="">
        <dc:format>image/svg+xml</dc:format>
        <dc:type
           rdf:resource="http://purl.org/dc/dcmitype/StillImage" />
        <dc:title></dc:title>
      </cc:Work>
    </rdf:RDF>
  </metadata>
  <defs
     id="defs889" />
  <sodipodi:namedview
     pagecolor="#ffffff"
     bordercolor="#666666"
     borderopacity="1"
     objecttolerance="10"
     gridtolerance="10"
     guidetolerance="10"
     inkscape:pageopacity="0"
     inkscape:pageshadow="2"
     inkscape:window-width="1920"
     inkscape:window-height="1051"
     id="namedview887"
     showgrid="false"
     inkscape:snap-smooth-nodes="true"
     inkscape:snap-intersection-paths="true"
     inkscape:snap-bbox="false"
     inkscape:bbox-nodes="false"
     inkscape:snap-bbox-edge-midpoints="false"
     inkscape:snap-bbox-midpoints="true"
     inkscape:snap-object-midpoints="true"
     inkscape:snap-center="true"
     inkscape:zoom="4.0330189"
     inkscape:cx="-10.716019"
     inkscape:cy="67.721307"
     inkscape:window-x="-9"
     inkscape:window-y="2151"
     inkscape:window-maximized="1"
     inkscape:current-layer="svg885"
     inkscape:document-rotation="0" />
  <ellipse
     style="fill:none;fill-rule:evenodd;stroke:#000000;stroke-width:1.2963779;stroke-dasharray:none;stroke-dashoffset:7.51898626;paint-order:stroke fill markers;stroke-opacity:1;stroke-miterlimit:4;fill-opacity:1"
     id="path893"
     cx="52.381485"
     cy="53.291981"
     rx="48.481487"
     ry="47.90802"
     inkscape:export-xdpi="32"
     inkscape:export-ydpi="32" />
  <g
     fill="#ffffff"
     id="g879"
     transform="translate(-0.61851501,0.29198074)"
     style="stroke-width:1.0015748;stroke-miterlimit:4;stroke-dasharray:none;stroke:none;stroke-opacity:1;fill:#000000">
    <path
       d="M 53.3,78.8 26.2,31.5 27.8,30.6 53.3,75.2 78.2,30.6 79.8,31.4 Z"
       id="path871"
       style="stroke-width:1.0015748;stroke-miterlimit:4;stroke-dasharray:none;stroke:none;stroke-opacity:1;fill:#000000" />
    <path
       d="m 27,52.1 h 52 v 1.8 H 27 Z"
       id="path873"
       style="stroke-width:1.0015748;stroke-miterlimit:4;stroke-dasharray:none;stroke:none;stroke-opacity:1;fill:#000000" />
  </g>
  <path
     d="m3 3h100v100h-100z"
     fill="none"
     id="path881" />
  <path
     d="m0 0h106v106h-106z"
     fill="none"
     id="path883" />
  <text
     xml:space="preserve"
     style="font-style:normal;font-weight:normal;font-size:13.8202px;line-height:1.25;font-family:sans-serif;fill:#000000;fill-opacity:1;stroke:none;stroke-width:0.647828"
     x="76.836914"
     y="12.540147"
     id="text897"
     transform="scale(1.0433422,0.9584583)"><tspan
       sodipodi:role="line"
       id="tspan895"
       x="76.836914"
       y="12.540147"
       style="stroke-width:0.647828">PIG</tspan></text>
</svg>
