<?xml version="1.0" encoding="UTF-8" standalone="no"?>
<svg
   xmlns:dc="http://purl.org/dc/elements/1.1/"
   xmlns:cc="http://creativecommons.org/ns#"
   xmlns:rdf="http://www.w3.org/1999/02/22-rdf-syntax-ns#"
   xmlns:svg="http://www.w3.org/2000/svg"
   xmlns="http://www.w3.org/2000/svg"
   xmlns:sodipodi="http://sodipodi.sourceforge.net/DTD/sodipodi-0.dtd"
   xmlns:inkscape="http://www.inkscape.org/namespaces/inkscape"
   viewBox="0 0 106 106"
   version="1.1"
   id="svg2969"
   sodipodi:docname="vpdp nominal speed.svg"
   inkscape:version="1.0.2 (e86c870879, 2021-01-15, custom)"
   inkscape:export-filename="C:\Users\marco.pitruzzella\Git\symbols\vacuum\PUMPS\SCROLL\vpdp nominal speed@512.png"
   inkscape:export-xdpi="512"
   inkscape:export-ydpi="512">
  <metadata
     id="metadata2975">
    <rdf:RDF>
      <cc:Work
         rdf:about="">
        <dc:format>image/svg+xml</dc:format>
        <dc:type
           rdf:resource="http://purl.org/dc/dcmitype/StillImage" />
      </cc:Work>
    </rdf:RDF>
  </metadata>
  <defs
     id="defs2973" />
  <sodipodi:namedview
     pagecolor="#ffffff"
     bordercolor="#666666"
     borderopacity="1"
     objecttolerance="10"
     gridtolerance="10"
     guidetolerance="10"
     inkscape:pageopacity="0"
     inkscape:pageshadow="2"
     inkscape:window-width="1920"
     inkscape:window-height="1051"
     id="namedview2971"
     showgrid="false"
     inkscape:snap-object-midpoints="true"
     inkscape:zoom="8.3018868"
     inkscape:cx="53"
     inkscape:cy="43.363636"
     inkscape:window-x="1911"
     inkscape:window-y="-9"
     inkscape:window-maximized="1"
     inkscape:current-layer="svg2969"
     inkscape:document-rotation="0" />
  <clipPath
     id="a">
    <circle
       cx="53"
       cy="53"
       r="50"
       id="circle2936" />
  </clipPath>
  <g
     clip-path="url(#a)"
     id="g2961">
    <circle
       cx="53"
       cy="53"
       fill="#3dd83d"
       r="49.1"
       id="circle2939" />
    <g
       fill="none"
       id="g2953">
      <path
         d="m53 4.7-6.5 9.2"
         id="path2941" />
      <path
         d="m53 4.7 6.5 9.2"
         id="path2943" />
      <path
         d="m18.7 86.6 8.8-1.5"
         id="path2945" />
      <path
         d="m18.7 86.6 1.6-8.8"
         id="path2947" />
      <path
         d="m87.3 86.6-8.8-1.5"
         id="path2949" />
      <path
         d="m87.3 86.6-1.6-8.8"
         id="path2951" />
    </g>
    <path
       d="m-15.98 43.09h70.3v2.7h-70.3z"
       transform="matrix(.24395355 -.96978692 .96978692 .24395355 -28.61 52.19)"
       id="path2955" />
    <path
       d="m85.51 9.41h2.7v70.31h-2.7z"
       transform="matrix(.96987202 -.24361501 .24361501 .96987202 -8.24 22.5)"
       id="path2957" />
    <path
       d="m53 103a50 50 0 1 1 50-50 50 50 0 0 1 -50 50zm0-98.3a48.3 48.3 0 1 0 48.3 48.3 48.4 48.4 0 0 0 -48.3-48.3z"
       fill="#288c28"
       id="path2959" />
  </g>
  <g
     fill="none"
     id="g2967">
    <path
       d="m3 3h100v100h-100z"
       id="path2963" />
    <path
       d="m0 0h106v106h-106z"
       id="path2965" />
  </g>
  <path
     sodipodi:type="spiral"
     style="fill:none;fill-rule:evenodd;stroke:#000000;stroke-width:2.32624;stroke-miterlimit:4;stroke-dasharray:none"
     id="path2893-2"
     sodipodi:cx="51.434093"
     sodipodi:cy="53.602272"
     sodipodi:expansion="1"
     sodipodi:revolution="3"
     sodipodi:radius="27.449104"
     sodipodi:argument="-17.366638"
     sodipodi:t0="0"
     transform="matrix(1.0458288,0,0,1.0658321,-0.79125626,-4.1310222)"
     d="m 51.434093,53.602272 c 0.120788,1.370944 -1.788412,0.839195 -2.278598,0.200757 -1.328375,-1.730126 0.16119,-4.040466 1.877084,-4.757954 3.069333,-1.283417 6.333015,1.000042 7.23731,3.954926 1.327089,4.336411 -1.840053,8.665229 -6.032767,9.716665 -5.588229,1.401399 -11.012647,-2.679136 -12.196021,-8.110609 -1.489156,-6.834954 3.51745,-13.367584 10.18845,-14.675376 8.079475,-1.583912 15.726812,4.355265 17.154732,12.266291 C 69.067038,61.519844 62.191525,70.285696 53.04015,71.83106 42.474526,73.615245 32.587724,65.801022 30.926706,55.409086 29.039353,43.601107 37.793877,32.591702 49.426523,30.816287 c 13.05007,-1.991749 25.183255,7.704197 27.072155,20.577657 2.097036,14.291981 -8.541148,27.549813 -22.6555,29.551511" />
</svg>
