<?xml version="1.0" encoding="UTF-8" standalone="no"?>
<svg
   xmlns:dc="http://purl.org/dc/elements/1.1/"
   xmlns:cc="http://creativecommons.org/ns#"
   xmlns:rdf="http://www.w3.org/1999/02/22-rdf-syntax-ns#"
   xmlns:svg="http://www.w3.org/2000/svg"
   xmlns="http://www.w3.org/2000/svg"
   xmlns:sodipodi="http://sodipodi.sourceforge.net/DTD/sodipodi-0.dtd"
   xmlns:inkscape="http://www.inkscape.org/namespaces/inkscape"
   viewBox="0 0 65.34 206"
   version="1.1"
   id="svg22"
   sodipodi:docname="coll.svg"
   inkscape:version="1.0.2 (e86c870879, 2021-01-15, custom)">
  <metadata
     id="metadata28">
    <rdf:RDF>
      <cc:Work
         rdf:about="">
        <dc:format>image/svg+xml</dc:format>
        <dc:type
           rdf:resource="http://purl.org/dc/dcmitype/StillImage" />
      </cc:Work>
    </rdf:RDF>
  </metadata>
  <defs
     id="defs26" />
  <sodipodi:namedview
     pagecolor="#ffffff"
     bordercolor="#666666"
     borderopacity="1"
     objecttolerance="10"
     gridtolerance="10"
     guidetolerance="10"
     inkscape:pageopacity="0"
     inkscape:pageshadow="2"
     inkscape:window-width="1920"
     inkscape:window-height="1051"
     id="namedview24"
     showgrid="false"
     inkscape:zoom="3.5679612"
     inkscape:cx="32.669998"
     inkscape:cy="103"
     inkscape:window-x="-9"
     inkscape:window-y="2151"
     inkscape:window-maximized="1"
     inkscape:current-layer="svg22" />
  <path
     d="m 4.4,32.99 0.82,-4.8 1.11,-4.53 1.41,-4.21 1.67,-3.8 1.9,-3.33 2.1,-2.82 2.27,-2.23 2.39,-1.63 2.48,-0.99 2.53,-0.33 v 7.72 l -2.02,0.26 -1.99,0.8 -1.91,1.29 -1.81,1.8 -1.69,2.25 -1.52,2.67 -1.34,3.05 -1.13,3.36 -0.88,3.63 -0.66,3.83 -0.39,3.98 -0.13,4.03 H 3.75 l 0.16,-5.03 z"
     fill="#ecf0f1"
     id="path2" />
  <path
     d="M 4.4,53.01 3.91,48.04 3.75,42.99 h 3.86 l 0.13,4.05 0.39,3.98 0.66,3.83 0.88,3.63 1.13,3.36 1.34,3.05 1.52,2.67 1.69,2.25 1.81,1.8 1.91,1.29 1.99,0.8 2.02,0.26 v 7.72 L 20.55,81.35 18.07,80.36 15.68,78.73 13.41,76.5 11.31,73.68 9.41,70.35 7.74,66.55 6.33,62.34 5.22,57.79 Z"
     fill="#ecf0f1"
     id="path4" />
  <g
     fill="none"
     id="g20"
     transform="translate(0,-60)">
    <path
       d="m 45.25,108.36 -22.17,25.6 -2.02,-0.26 -1.99,-0.8 -1.91,-1.29 -1.81,-1.8 -1.69,-2.25 -1.52,-2.67 -1.34,-3.05 -1.13,-3.36 -0.88,-3.63 -0.66,-3.83 -0.39,-3.98 -0.13,-4.05 0.13,-4.03 0.39,-3.98 0.66,-3.83 0.88,-3.63 1.13,-3.36 1.34,-3.05 1.52,-2.67 1.69,-2.25 1.81,-1.8 1.91,-1.29 1.99,-0.8 2.02,-0.26 2.57,2.96 19.6,22.64"
       stroke="#000000"
       stroke-linecap="round"
       stroke-linejoin="round"
       stroke-width="1.5"
       id="path6" />
    <path
       d="M 61.59,108.36 H 45.25 l -0.35,-0.04 -0.34,-0.13 -0.34,-0.23 -0.32,-0.31 -0.29,-0.39 -0.26,-0.46 -0.23,-0.53 -0.19,-0.59 -0.16,-0.63 -0.11,-0.66 -0.08,-0.69 -0.01,-0.71 0.01,-0.69 0.08,-0.69 0.11,-0.66 0.16,-0.63 0.19,-0.59 0.23,-0.53 0.26,-0.46 0.29,-0.39 0.32,-0.31 0.34,-0.23 0.34,-0.13 0.35,-0.04 h 16.34"
       stroke="#000000"
       stroke-linecap="round"
       stroke-linejoin="round"
       stroke-width="1.5"
       id="path8" />
    <path
       d="M 61.59,113.82 H 47.21 l -24.13,27.86 -2.53,-0.33 -2.48,-0.99 -2.39,-1.63 -2.27,-2.23 -2.1,-2.82 -1.9,-3.33 -1.67,-3.8 -1.41,-4.21 -1.11,-4.55 -0.82,-4.78 -0.49,-4.97 -0.16,-5.05 0.16,-5.03 0.49,-4.97 0.82,-4.8 1.11,-4.53 1.41,-4.21 1.67,-3.8 1.9,-3.33 2.1,-2.82 2.27,-2.23 2.39,-1.63 2.48,-0.99 2.53,-0.33 4.19,4.83 19.94,23.03 h 14.38 v 5.46 l -0.35,0.04 -0.34,0.13 -0.34,0.23 -0.32,0.31 -0.29,0.39 -0.26,0.46 -0.23,0.53 -0.19,0.59 -0.16,0.63 -0.12,0.66 -0.07,0.69 -0.01,0.69 0.01,0.71 0.07,0.69 0.12,0.66 0.16,0.63 0.19,0.59 0.23,0.53 0.26,0.46 0.29,0.39 0.32,0.31 0.34,0.23 0.34,0.13 0.35,0.04 z"
       stroke="#000000"
       stroke-linecap="round"
       stroke-linejoin="round"
       stroke-width="1.5"
       id="path10" />
    <path
       d="M 23.08,72.04 V 64.32 H 61.59 V 92.18"
       stroke="#000000"
       stroke-linecap="round"
       stroke-linejoin="round"
       stroke-width="1.5"
       id="path12" />
    <path
       d="m 23.08,133.96 v 7.72 h 38.51 v -27.86"
       stroke="#000000"
       stroke-linecap="round"
       stroke-linejoin="round"
       stroke-width="1.5"
       id="path14" />
    <path
       d="M 3,3 H 62.34 V 203 H 3 Z"
       id="path16" />
    <path
       d="M 0,0 H 65.34 V 206 H 0 Z"
       id="path18" />
  </g>
</svg>
