<?xml version="1.0" encoding="UTF-8" standalone="no"?>
<svg
   xmlns:dc="http://purl.org/dc/elements/1.1/"
   xmlns:cc="http://creativecommons.org/ns#"
   xmlns:rdf="http://www.w3.org/1999/02/22-rdf-syntax-ns#"
   xmlns:svg="http://www.w3.org/2000/svg"
   xmlns="http://www.w3.org/2000/svg"
   xmlns:sodipodi="http://sodipodi.sourceforge.net/DTD/sodipodi-0.dtd"
   xmlns:inkscape="http://www.inkscape.org/namespaces/inkscape"
   viewBox="0 0 106 106"
   version="1.1"
   id="svg45"
   sodipodi:docname="igp_ConnectionIssue.svg"
   inkscape:version="1.0.2 (e86c870879, 2021-01-15, custom)">
  <metadata
     id="metadata51">
    <rdf:RDF>
      <cc:Work
         rdf:about="">
        <dc:format>image/svg+xml</dc:format>
        <dc:type
           rdf:resource="http://purl.org/dc/dcmitype/StillImage" />
        <dc:title></dc:title>
      </cc:Work>
    </rdf:RDF>
  </metadata>
  <defs
     id="defs49" />
  <sodipodi:namedview
     pagecolor="#ffffff"
     bordercolor="#666666"
     borderopacity="1"
     objecttolerance="10"
     gridtolerance="10"
     guidetolerance="10"
     inkscape:pageopacity="0"
     inkscape:pageshadow="2"
     inkscape:window-width="1920"
     inkscape:window-height="1051"
     id="namedview47"
     showgrid="false"
     inkscape:zoom="6.9339623"
     inkscape:cx="53"
     inkscape:cy="53"
     inkscape:window-x="-9"
     inkscape:window-y="2151"
     inkscape:window-maximized="1"
     inkscape:current-layer="svg45" />
  <clipPath
     id="a">
    <circle
       cx="53"
       cy="53"
       r="50"
       id="circle2" />
  </clipPath>
  <g
     fill="none"
     id="g17">
    <circle
       cx="53"
       cy="53"
       r="49.1"
       id="circle5" />
    <path
       d="m53 4.7-6.5 9.2"
       id="path7" />
    <path
       d="m53 4.7 6.5 9.2"
       id="path9" />
    <path
       d="m45.9 59.4-27.6 27.7"
       id="path11" />
    <path
       d="m18.7 86.6 8.8-1.5"
       id="path13" />
    <path
       d="m18.7 86.6 1.6-8.8"
       id="path15" />
  </g>
  <g
     clip-path="url(#a)"
     id="g37"
     style="fill:#ff00ff">
    <g
       fill="none"
       id="g25"
       style="fill:#ff00ff">
      <path
         d="m60.1 59.4 27.6 27.7"
         id="path19"
         style="fill:#ff00ff" />
      <path
         d="m87.3 86.6-8.8-1.5"
         id="path21"
         style="fill:#ff00ff" />
      <path
         d="m87.3 86.6-1.6-8.8"
         id="path23"
         style="fill:#ff00ff" />
    </g>
    <path
       d="m-15.98 43.09h70.3v2.7h-70.3z"
       transform="matrix(.24395355 -.96978692 .96978692 .24395355 -28.6 52.19)"
       id="path27"
       style="fill:#ff00ff" />
    <path
       d="m85.51 9.41h2.7v70.31h-2.7z"
       transform="matrix(.96987202 -.24361501 .24361501 .96987202 -8.24 22.5)"
       id="path29"
       style="fill:#ff00ff" />
    <path
       d="m54.3 4.1v-.7h-2.7v.82l-6.51 9.29 2.21 1.55 4.3-6.13v35.07h2.7v-35.19l4.37 6.24 2.21-1.55z"
       id="path31"
       style="fill:#ff00ff" />
    <path
       d="m45.27 58.14-24.55 24.55.91-5.18-2.66-.47-1.58 8.98-.48.47.34.34-.02.06.1.02 1.07 1.07.01.07.05-.01.36.36.52-.51 8.92-1.58-.47-2.65-5.12.9 24.51-24.51z"
       id="path33"
       style="fill:#ff00ff" />
    <path
       d="m88.58 85.95-1.57-8.91-2.66.47.9 5.12-24.51-24.51-1.9 1.9 24.55 24.56-5.19-.92-.47 2.66 8.99 1.58.47.48.33-.33.06.01.01-.08 1.08-1.07.08-.02-.01-.06.36-.36z"
       id="path35"
       style="fill:#ff00ff" />
  </g>
  <path
     d="m53 103a50 50 0 1 1 50-50 50 50 0 0 1 -50 50zm0-98.3a48.3 48.3 0 1 0 48.3 48.3 48.4 48.4 0 0 0 -48.3-48.3z"
     id="path39"
     style="fill:#ff00ff"
     inkscape:export-xdpi="256"
     inkscape:export-ydpi="256" />
  <path
     d="m3 3h100v100h-100z"
     fill="none"
     id="path41" />
  <path
     d="m0 0h106v106h-106z"
     fill="none"
     id="path43" />
</svg>
