<?xml version="1.0" encoding="UTF-8" standalone="no"?>
<svg
   xmlns:dc="http://purl.org/dc/elements/1.1/"
   xmlns:cc="http://creativecommons.org/ns#"
   xmlns:rdf="http://www.w3.org/1999/02/22-rdf-syntax-ns#"
   xmlns:svg="http://www.w3.org/2000/svg"
   xmlns="http://www.w3.org/2000/svg"
   xmlns:sodipodi="http://sodipodi.sourceforge.net/DTD/sodipodi-0.dtd"
   xmlns:inkscape="http://www.inkscape.org/namespaces/inkscape"
   id="accelerators"
   viewBox="0 0 128.15 206"
   version="1.1"
   sodipodi:docname="qu.svg"
   inkscape:version="1.0.2 (e86c870879, 2021-01-15, custom)">
  <metadata
     id="metadata239">
    <rdf:RDF>
      <cc:Work
         rdf:about="">
        <dc:format>image/svg+xml</dc:format>
        <dc:type
           rdf:resource="http://purl.org/dc/dcmitype/StillImage" />
        <dc:title>qv</dc:title>
      </cc:Work>
    </rdf:RDF>
  </metadata>
  <sodipodi:namedview
     pagecolor="#ffffff"
     bordercolor="#666666"
     borderopacity="1"
     objecttolerance="10"
     gridtolerance="10"
     guidetolerance="10"
     inkscape:pageopacity="0"
     inkscape:pageshadow="2"
     inkscape:window-width="1920"
     inkscape:window-height="1051"
     id="namedview237"
     showgrid="false"
     inkscape:zoom="3.5679612"
     inkscape:cx="64.074997"
     inkscape:cy="103"
     inkscape:window-x="-9"
     inkscape:window-y="2151"
     inkscape:window-maximized="1"
     inkscape:current-layer="accelerators" />
  <defs
     id="defs4">
    <style
       id="style2">.cls-1{fill:#e57873;}.cls-2{fill:#ecf0f1;}.cls-3{fill:#6cafd8;}.cls-4{fill:#999;}.cls-5,.cls-6,.cls-7{fill:none;}.cls-5,.cls-6{stroke:#000;stroke-linecap:round;stroke-linejoin:round;}.cls-5{stroke-width:1.5px;}.cls-6{stroke-width:0.75px;}</style>
  </defs>
  <title
     id="title6">qv</title>
  <g
     id="magnets">
    <g
       id="qv">
      <path
         d="M99.77,55.88a1.8,1.8,0,0,0,.74-1.54A1.78,1.78,0,0,0,100,53a3.72,3.72,0,0,0-1.75-.73l-1-.19a5.26,5.26,0,0,1-2.59-1.12,2.78,2.78,0,0,1-.79-2.11A3,3,0,0,1,95,46.36a4.69,4.69,0,0,1,3-.9,9.94,9.94,0,0,1,1.7.15,12.31,12.31,0,0,1,1.76.45v1.56A9.75,9.75,0,0,0,99.75,47a6.15,6.15,0,0,0-1.56-.21,3.39,3.39,0,0,0-2,.5,1.68,1.68,0,0,0-.71,1.44,1.46,1.46,0,0,0,.47,1.18,4,4,0,0,0,1.79.65l1,.2a4.85,4.85,0,0,1,2.64,1.2,3.52,3.52,0,0,1-.3,4.9,5.46,5.46,0,0,1-3.37.88,8.87,8.87,0,0,1-1.79-.19,12.46,12.46,0,0,1-2-.56V55.32a10,10,0,0,0,1.91.82,6.58,6.58,0,0,0,1.84.28A3.56,3.56,0,0,0,99.77,55.88Z"
         id="path8" />
      <polygon
         points="98.97 162.39 98.97 152.51 100.52 152.51 100.52 164.32 98.37 164.32 93.13 154.44 93.13 164.32 91.58 164.32 91.58 152.51 93.73 152.51 98.97 162.39"
         id="polygon10" />
      <polygon
         class="cls-1"
         points="79.73 125.08 80.8 127.21 63.72 161.29 62.65 159.15 79.73 125.08"
         id="polygon12" />
      <polygon
         class="cls-2"
         points="64.55 93.45 63.93 93.66 63.31 93.75 62.68 93.74 62.06 93.6 61.45 93.35 60.84 92.99 60.25 92.52 59.69 91.92 59.14 91.22 58.8 90.68 58.3 89.79 57.85 88.8 57.46 87.75 57.13 86.65 56.85 85.5 56.63 84.31 56.47 83.1 56.37 81.86 56.32 80.61 56.33 79.37 56.4 78.12 56.52 76.89 56.7 75.68 56.94 74.51 57.23 73.37 57.59 72.29 57.85 71.59 58.3 70.61 59.98 67.26 59.98 67.24 69.57 86.43 67.89 89.79 67.4 90.68 66.88 91.47 66.32 92.13 65.75 92.69 65.15 93.13 64.55 93.45"
         id="polygon14" />
      <path
         class="cls-2"
         d="M22.54,127.21,39.6,161.34H63.74L80.8,127.21V78.94h0L72.91,63.18l-3.17-6.36-6-12H39.59L22.54,78.94ZM90.75,70.69v64.77L67.86,181.25H35.47L12.58,135.46V70.69l19.1-38.21h40L82.86,54.9Z"
         id="path16" />
      <polygon
         class="cls-3"
         points="80.79 78.93 79.72 81.07 62.66 46.96 63.71 44.86 63.72 44.83 72.91 63.18 80.79 78.93"
         id="polygon18" />
      <polygon
         class="cls-2"
         points="67.9 116.35 69.58 119.71 59.99 138.89 58.31 135.53 57.86 134.54 57.47 133.49 57.14 132.39 56.86 131.24 56.64 130.05 56.48 128.84 56.37 127.6 56.33 126.36 56.33 125.11 56.4 123.86 56.53 122.64 56.71 121.43 56.95 120.25 57.24 119.12 57.59 118.03 57.86 117.34 58.31 116.35 58.8 115.45 59.33 114.67 59.88 114 60.45 113.45 61.05 113.01 61.66 112.69 62.27 112.48 62.81 112.4 62.89 112.38 63.52 112.4 64.14 112.54 64.76 112.78 65.36 113.15 65.95 113.62 66.51 114.21 67.06 114.92 67.41 115.45 67.9 116.35"
         id="polygon20" />
      <polygon
         class="cls-4"
         points="79.72 81.07 78.65 83.2 61.59 49.1 62.66 46.96 79.72 81.07"
         id="polygon22" />
      <polygon
         class="cls-4"
         points="79.73 125.07 79.73 125.08 62.65 159.15 61.58 157 78.67 122.96 79.73 125.07"
         id="polygon24" />
      <polygon
         class="cls-1"
         points="78.67 122.96 61.58 157 60.48 154.81 77.63 120.88 78.67 122.96"
         id="polygon26" />
      <polygon
         class="cls-3"
         points="78.65 83.2 77.59 85.33 77.57 85.32 60.52 51.24 61.59 49.1 78.65 83.2"
         id="polygon28" />
      <polygon
         class="cls-4"
         points="77.57 85.32 77.59 85.33 76.52 87.46 76.5 87.45 59.45 53.37 60.52 51.24 77.57 85.32"
         id="polygon30" />
      <polygon
         class="cls-3"
         points="58.38 55.51 59.45 53.37 76.5 87.45 76.52 87.46 75.46 89.59 75.42 89.57 58.38 55.51"
         id="polygon32" />
      <polygon
         class="cls-1"
         points="58.48 150.5 75.46 116.53 76.48 118.57 59.53 152.79 59.48 152.81 58.36 150.57 58.48 150.5"
         id="polygon34" />
      <polygon
         class="cls-4"
         points="77.63 120.88 60.48 154.81 59.48 152.81 59.53 152.79 76.48 118.57 77.63 120.88"
         id="polygon36" />
      <polygon
         class="cls-4"
         points="74.35 91.7 57.32 57.64 58.38 55.51 75.42 89.57 75.46 89.59 74.39 91.72 74.35 91.7"
         id="polygon38" />
      <polygon
         class="cls-4"
         points="75.46 116.53 58.48 150.5 58.36 150.57 57.33 148.51 74.38 114.37 75.46 116.53"
         id="polygon40" />
      <polygon
         class="cls-1"
         points="73.35 112.31 74.38 114.37 57.33 148.51 56.26 146.37 56.26 146.36 69.58 119.71 71.47 115.94 73.28 112.31 73.35 112.31"
         id="polygon42" />
      <polygon
         class="cls-3"
         points="74.39 91.72 73.34 93.82 73.27 93.82 69.57 86.43 59.98 67.24 56.25 59.79 56.25 59.78 57.32 57.64 74.35 91.7 74.39 91.72"
         id="polygon44" />
      <polygon
         class="cls-2"
         points="41.68 93.46 41.06 93.67 40.43 93.77 39.81 93.75 39.19 93.61 38.57 93.37 37.97 93.01 37.38 92.53 36.81 91.94 36.27 91.23 35.92 90.7 35.43 89.8 33.75 86.44 43.34 67.26 45.02 70.62 45.47 71.61 45.86 72.66 46.19 73.76 46.47 74.91 46.69 76.1 46.85 77.31 46.96 78.55 47.01 79.79 46.99 81.04 46.93 82.29 46.8 83.52 46.62 84.72 46.39 85.9 46.09 87.03 45.74 88.12 45.47 88.81 45.02 89.8 44.53 90.7 44 91.48 43.45 92.15 42.88 92.7 42.28 93.14 41.68 93.46"
         id="polygon46" />
      <polygon
         class="cls-2"
         points="40.65 112.42 41.27 112.55 41.89 112.8 42.49 113.16 43.08 113.64 43.64 114.23 44.19 114.93 44.53 115.47 45.03 116.36 45.48 117.35 45.87 118.4 46.2 119.5 46.48 120.65 46.7 121.84 46.86 123.06 46.96 124.29 47.01 125.54 47 126.79 46.94 128.03 46.81 129.26 46.63 130.46 46.39 131.64 46.1 132.78 45.74 133.86 45.48 134.56 45.03 135.54 43.35 138.9 36.3 124.8 33.76 119.72 35.44 116.36 35.93 115.47 36.46 114.68 37.01 114.02 37.58 113.46 38.17 113.02 38.78 112.7 39.4 112.49 40.03 112.4 40.65 112.42"
         id="polygon48" />
      <polygon
         class="cls-1"
         points="28.95 91.77 46.01 57.65 47.07 59.79 43.34 67.26 33.75 86.44 30.02 93.91 28.95 91.77"
         id="polygon50" />
      <polygon
         class="cls-3"
         points="36.3 124.8 43.35 138.9 47.08 146.37 46.01 148.51 28.95 114.39 30.02 112.26 33.76 119.72 36.3 124.8"
         id="polygon52" />
      <polygon
         class="cls-4"
         points="46.01 57.65 28.95 91.77 27.88 89.63 44.94 55.52 46.01 57.65"
         id="polygon54" />
      <polygon
         class="cls-4"
         points="28.95 114.39 46.01 148.51 44.94 150.65 27.88 116.53 28.95 114.39"
         id="polygon56" />
      <polygon
         class="cls-1"
         points="44.94 55.52 27.88 89.63 26.81 87.49 43.87 53.38 44.94 55.52"
         id="polygon58" />
      <polygon
         class="cls-3"
         points="27.88 116.53 44.94 150.65 43.87 152.79 26.82 118.66 27.88 116.53"
         id="polygon60" />
      <polygon
         class="cls-4"
         points="26.82 118.66 43.87 152.79 42.8 154.92 25.75 120.8 26.82 118.66"
         id="polygon62" />
      <polygon
         class="cls-4"
         points="43.87 53.38 26.81 87.49 25.74 85.36 42.8 51.24 43.87 53.38"
         id="polygon64" />
      <polygon
         class="cls-3"
         points="25.75 120.8 42.8 154.92 41.74 157.06 24.68 122.94 25.75 120.8"
         id="polygon66" />
      <polygon
         class="cls-1"
         points="24.67 83.22 41.73 49.11 42.8 51.24 25.74 85.36 24.67 83.22"
         id="polygon68" />
      <polygon
         class="cls-4"
         points="40.67 159.2 23.61 125.07 24.68 122.94 41.74 157.06 40.67 159.2"
         id="polygon70" />
      <polygon
         class="cls-4"
         points="41.73 49.11 24.67 83.22 23.61 81.08 40.66 46.97 41.73 49.1 41.73 49.11"
         id="polygon72" />
      <polygon
         class="cls-3"
         points="23.61 125.07 40.67 159.2 39.6 161.34 22.54 127.21 23.61 125.07"
         id="polygon74" />
      <polygon
         class="cls-1"
         points="40.66 46.97 23.61 81.08 22.54 78.94 39.59 44.83 40.66 46.96 40.66 46.97"
         id="polygon76" />
      <path
         d="M7.16,152.23a9.91,9.91,0,0,1,1.69.15,12.31,12.31,0,0,1,1.76.45v1.56a9.67,9.67,0,0,0-1.71-.65,6.24,6.24,0,0,0-1.56-.22,3.45,3.45,0,0,0-2,.51,1.67,1.67,0,0,0-.7,1.44,1.43,1.43,0,0,0,.47,1.18,4,4,0,0,0,1.78.65l1,.2a4.85,4.85,0,0,1,2.64,1.2,3.13,3.13,0,0,1,.85,2.29,3.09,3.09,0,0,1-1.16,2.61,5.44,5.44,0,0,1-3.37.88A8.78,8.78,0,0,1,5,164.29a12.16,12.16,0,0,1-2-.56v-1.64a9.91,9.91,0,0,0,1.9.82,6.69,6.69,0,0,0,1.84.28,3.54,3.54,0,0,0,2.11-.54,1.78,1.78,0,0,0,.75-1.54,1.75,1.75,0,0,0-.54-1.36A3.58,3.58,0,0,0,7.37,159l-1-.19a5.17,5.17,0,0,1-2.59-1.12A2.79,2.79,0,0,1,3,155.6a3,3,0,0,1,1.1-2.47A4.7,4.7,0,0,1,7.16,152.23Z"
         id="path78" />
      <polygon
         points="5.15 45.69 10.39 55.57 10.39 45.69 11.94 45.69 11.94 57.5 9.79 57.5 4.55 47.62 4.55 57.5 3 57.5 3 45.69 5.15 45.69"
         id="polygon80" />
      <polyline
         class="cls-5"
         points="35.47 181.25 12.58 135.46 12.58 70.69 31.68 32.48 71.64 32.48 82.86 54.9 90.75 70.69 90.75 135.46 67.86 181.25"
         id="polyline82" />
      <line
         class="cls-5"
         x1="124.4"
         y1="70.69"
         x2="90.75"
         y2="70.69"
         id="line84" />
      <polyline
         class="cls-5"
         points="101.5 181.25 124.4 135.46 124.4 70.69 105.29 32.48 71.64 32.48"
         id="polyline86" />
      <line
         class="cls-5"
         x1="22.54"
         y1="127.21"
         x2="22.54"
         y2="78.94"
         id="line88" />
      <polyline
         class="cls-5"
         points="80.8 78.94 80.8 93.89 80.8 112.24 80.8 127.21 63.74 161.33 63.69 161.34 39.6 161.34"
         id="polyline90" />
      <polyline
         class="cls-5"
         points="63.73 44.82 69.74 56.82 72.91 63.18"
         id="polyline92" />
      <polyline
         class="cls-5"
         points="39.6 44.82 63.69 44.82 63.73 44.82"
         id="polyline94" />
      <line
         class="cls-5"
         x1="39.6"
         y1="44.83"
         x2="63.69"
         y2="44.83"
         id="line96" />
      <line
         class="cls-5"
         x1="124.4"
         y1="135.46"
         x2="90.75"
         y2="135.46"
         id="line98" />
      <polyline
         class="cls-5"
         points="101.5 181.25 67.86 181.25 35.47 181.25"
         id="polyline100" />
      <line
         class="cls-5"
         x1="56.18"
         y1="112.26"
         x2="56.18"
         y2="93.91"
         id="line102" />
      <polyline
         class="cls-5"
         points="30.02 93.91 28.95 91.77 27.88 89.63 26.81 87.49 25.74 85.36 24.67 83.22 23.61 81.08 22.54 78.94"
         id="polyline104" />
      <line
         class="cls-5"
         x1="79.73"
         y1="125.08"
         x2="80.8"
         y2="127.21"
         id="line106" />
      <polyline
         class="cls-5"
         points="73.31 112.24 73.35 112.31 74.38 114.37 75.46 116.53 76.48 118.57 77.63 120.88 78.67 122.96 79.73 125.07"
         id="polyline108" />
      <polyline
         class="cls-5"
         points="80.79 78.93 79.72 81.07 78.65 83.2 77.59 85.33 76.52 87.46 75.46 89.59 74.39 91.72 73.34 93.82 73.31 93.89"
         id="polyline110" />
      <line
         class="cls-5"
         x1="43.34"
         y1="67.26"
         x2="59.98"
         y2="67.26"
         id="line112" />
      <line
         class="cls-5"
         x1="59.98"
         y1="138.9"
         x2="43.35"
         y2="138.9"
         id="line114" />
      <polyline
         class="cls-5"
         points="69.57 86.43 67.89 89.79 67.4 90.68 66.88 91.47 66.32 92.13 65.75 92.69 65.15 93.13 64.55 93.45 63.93 93.66 63.31 93.75 62.68 93.74 62.06 93.6 61.45 93.35 60.84 92.99 60.25 92.52 59.69 91.92 59.14 91.22 58.8 90.68 58.3 89.79 57.85 88.8 57.46 87.75 57.13 86.65 56.85 85.5 56.63 84.31 56.47 83.1 56.37 81.86 56.32 80.61 56.33 79.37 56.4 78.12 56.52 76.89 56.7 75.68 56.94 74.51 57.23 73.37 57.59 72.29 57.85 71.59 58.3 70.61 59.98 67.26 59.98 67.24"
         id="polyline116" />
      <polyline
         class="cls-5"
         points="43.35 138.9 45.03 135.54 45.48 134.56 45.74 133.86 46.1 132.78 46.39 131.64 46.63 130.46 46.81 129.26 46.94 128.03 47 126.79 47.01 125.54 46.96 124.29 46.86 123.06 46.7 121.84 46.48 120.65 46.2 119.5 45.87 118.4 45.48 117.35 45.03 116.36 44.53 115.47 44.19 114.93 43.64 114.23 43.08 113.64 42.49 113.16 41.89 112.8 41.27 112.55 40.65 112.42 40.03 112.4"
         id="polyline118" />
      <polyline
         class="cls-5"
         points="69.58 119.71 67.9 116.35 67.41 115.45 67.06 114.92 66.51 114.21 65.95 113.62 65.36 113.15 64.76 112.78 64.14 112.54 63.52 112.4 62.89 112.38"
         id="polyline120" />
      <polyline
         class="cls-5"
         points="40.43 93.77 41.06 93.67 41.68 93.46 42.28 93.14 42.88 92.7 43.45 92.15 44 91.48 44.53 90.7 45.02 89.8 45.47 88.81 45.74 88.12 46.09 87.03 46.39 85.9 46.62 84.72 46.8 83.52 46.93 82.29 46.99 81.04 47.01 79.79 46.96 78.55 46.85 77.31 46.69 76.1 46.47 74.91 46.19 73.76 45.86 72.66 45.47 71.61 45.02 70.62 43.34 67.26"
         id="polyline122" />
      <polyline
         class="cls-5"
         points="56.26 146.37 57.33 148.51 58.36 150.57 59.48 152.81 60.48 154.81 61.58 157 62.65 159.15 63.72 161.29"
         id="polyline124" />
      <polyline
         class="cls-5"
         points="69.58 119.71 59.99 138.89 59.98 138.9 56.26 146.36"
         id="polyline126" />
      <polyline
         class="cls-5"
         points="33.76 119.72 35.44 116.36 35.93 115.47 36.46 114.68 37.01 114.02 37.58 113.46 38.17 113.02 38.78 112.7 39.4 112.49 40.03 112.4 46.63 112.4 54.12 112.4 54.19 112.4 56.18 112.4 62.81 112.4 62.89 112.38 73.28 112.31 73.35 112.31 80.8 112.24"
         id="polyline128" />
      <polyline
         class="cls-5"
         points="44.94 150.65 46.01 148.51 47.08 146.37"
         id="polyline130" />
      <polyline
         class="cls-5"
         points="41.74 157.06 42.8 154.92 43.87 152.79 44.94 150.65"
         id="polyline132" />
      <line
         class="cls-5"
         x1="40.67"
         y1="159.2"
         x2="41.74"
         y2="157.06"
         id="line134" />
      <line
         class="cls-5"
         x1="39.6"
         y1="161.34"
         x2="40.67"
         y2="159.2"
         id="line136" />
      <polyline
         class="cls-5"
         points="30.02 112.26 28.95 114.39 27.88 116.53 26.82 118.66 25.75 120.8 24.68 122.94 23.61 125.07 22.54 127.21"
         id="polyline138" />
      <polyline
         class="cls-5"
         points="33.75 86.44 35.43 89.8 35.92 90.7 36.27 91.23 36.81 91.94 37.38 92.53 37.97 93.01 38.57 93.37 39.19 93.61 39.81 93.75 40.43 93.77 46.63 93.77 54.11 93.77 54.18 93.77 56.18 93.77 63.31 93.77 64.53 93.77 64.61 93.75 73.27 93.82 73.34 93.82 80.8 93.89"
         id="polyline140" />
      <polyline
         class="cls-5"
         points="44.94 55.52 46.01 57.65 47.07 59.79"
         id="polyline142" />
      <polyline
         class="cls-5"
         points="41.73 49.11 42.8 51.24 43.87 53.38 44.94 55.52"
         id="polyline144" />
      <line
         class="cls-5"
         x1="40.66"
         y1="46.97"
         x2="41.73"
         y2="49.1"
         id="line146" />
      <line
         class="cls-5"
         x1="39.59"
         y1="44.83"
         x2="40.66"
         y2="46.96"
         id="line148" />
      <line
         class="cls-5"
         x1="39.6"
         y1="44.82"
         x2="39.6"
         y2="44.83"
         id="line150" />
      <polyline
         class="cls-5"
         points="30.02 112.26 46.63 112.26 54.12 112.26"
         id="polyline152" />
      <polyline
         class="cls-5"
         points="54.11 93.91 46.63 93.91 30.02 93.91"
         id="polyline154" />
      <polyline
         class="cls-5"
         points="62.81 112.4 62.27 112.48 61.66 112.69 61.05 113.01 60.45 113.45 59.88 114 59.33 114.67 58.8 115.45 58.31 116.35 57.86 117.34 57.59 118.03 57.24 119.12 56.95 120.25 56.71 121.43 56.53 122.64 56.4 123.86 56.33 125.11 56.33 126.36 56.37 127.6 56.48 128.84 56.64 130.05 56.86 131.24 57.14 132.39 57.47 133.49 57.86 134.54 58.31 135.53 59.99 138.89"
         id="polyline156" />
      <polyline
         class="cls-5"
         points="58.38 55.51 59.45 53.37 60.52 51.24 61.59 49.1 62.66 46.96 63.71 44.86 63.72 44.83 63.73 44.82"
         id="polyline158" />
      <polyline
         class="cls-5"
         points="56.25 59.78 57.32 57.64 58.38 55.51"
         id="polyline160" />
      <line
         class="cls-5"
         x1="73.31"
         y1="93.89"
         x2="73.27"
         y2="93.82"
         id="line162" />
      <polyline
         class="cls-5"
         points="30.02 93.91 33.75 86.44 43.34 67.26 47.07 59.79 56.25 59.79"
         id="polyline164" />
      <line
         class="cls-6"
         x1="46.01"
         y1="57.65"
         x2="28.95"
         y2="91.77"
         id="line166" />
      <line
         class="cls-6"
         x1="44.94"
         y1="55.52"
         x2="27.88"
         y2="89.63"
         id="line168" />
      <line
         class="cls-6"
         x1="43.87"
         y1="53.38"
         x2="26.81"
         y2="87.49"
         id="line170" />
      <line
         class="cls-6"
         x1="42.8"
         y1="51.24"
         x2="25.74"
         y2="85.36"
         id="line172" />
      <polyline
         class="cls-6"
         points="41.73 49.1 41.73 49.11 24.67 83.22"
         id="polyline174" />
      <polyline
         class="cls-6"
         points="40.66 46.96 40.66 46.97 23.61 81.08"
         id="polyline176" />
      <polyline
         class="cls-5"
         points="22.54 78.94 39.59 44.83 39.6 44.83"
         id="polyline178" />
      <polyline
         class="cls-5"
         points="63.72 44.83 72.91 63.18 80.79 78.93 80.8 78.94"
         id="polyline180" />
      <line
         class="cls-6"
         x1="62.66"
         y1="46.96"
         x2="79.72"
         y2="81.07"
         id="line182" />
      <line
         class="cls-6"
         x1="61.59"
         y1="49.1"
         x2="78.65"
         y2="83.2"
         id="line184" />
      <line
         class="cls-6"
         x1="60.52"
         y1="51.24"
         x2="77.57"
         y2="85.32"
         id="line186" />
      <line
         class="cls-6"
         x1="59.45"
         y1="53.37"
         x2="76.5"
         y2="87.45"
         id="line188" />
      <line
         class="cls-6"
         x1="58.38"
         y1="55.51"
         x2="75.42"
         y2="89.57"
         id="line190" />
      <line
         class="cls-6"
         x1="57.32"
         y1="57.64"
         x2="74.35"
         y2="91.7"
         id="line192" />
      <polyline
         class="cls-5"
         points="56.25 59.78 56.25 59.79 59.98 67.24 69.57 86.43 73.27 93.82"
         id="polyline194" />
      <line
         class="cls-5"
         x1="47.08"
         y1="146.37"
         x2="56.26"
         y2="146.37"
         id="line196" />
      <polyline
         class="cls-5"
         points="30.02 112.26 33.76 119.72 36.3 124.8 43.35 138.9 47.08 146.37"
         id="polyline198" />
      <line
         class="cls-6"
         x1="28.95"
         y1="114.39"
         x2="46.01"
         y2="148.51"
         id="line200" />
      <line
         class="cls-6"
         x1="27.88"
         y1="116.53"
         x2="44.94"
         y2="150.65"
         id="line202" />
      <line
         class="cls-6"
         x1="26.82"
         y1="118.66"
         x2="43.87"
         y2="152.79"
         id="line204" />
      <line
         class="cls-6"
         x1="25.75"
         y1="120.8"
         x2="42.8"
         y2="154.92"
         id="line206" />
      <line
         class="cls-6"
         x1="24.68"
         y1="122.94"
         x2="41.74"
         y2="157.06"
         id="line208" />
      <line
         class="cls-6"
         x1="23.61"
         y1="125.07"
         x2="40.67"
         y2="159.2"
         id="line210" />
      <line
         class="cls-5"
         x1="22.54"
         y1="127.21"
         x2="39.6"
         y2="161.34"
         id="line212" />
      <polyline
         class="cls-5"
         points="73.31 112.24 73.28 112.31 71.47 115.94 69.58 119.71 56.26 146.36 56.26 146.37"
         id="polyline214" />
      <line
         class="cls-6"
         x1="74.38"
         y1="114.37"
         x2="57.33"
         y2="148.51"
         id="line216" />
      <line
         class="cls-6"
         x1="75.46"
         y1="116.53"
         x2="58.48"
         y2="150.5"
         id="line218" />
      <line
         class="cls-6"
         x1="76.48"
         y1="118.57"
         x2="59.53"
         y2="152.79"
         id="line220" />
      <line
         class="cls-6"
         x1="60.48"
         y1="154.81"
         x2="77.63"
         y2="120.88"
         id="line222" />
      <line
         class="cls-6"
         x1="61.58"
         y1="157"
         x2="78.67"
         y2="122.96"
         id="line224" />
      <polyline
         class="cls-6"
         points="62.65 159.15 79.73 125.08 79.73 125.07"
         id="polyline226" />
      <polyline
         class="cls-5"
         points="63.69 161.34 63.72 161.29 80.8 127.21"
         id="polyline228" />
      <rect
         class="cls-7"
         x="3.01"
         y="3"
         width="122.14"
         height="200"
         id="rect230" />
      <rect
         class="cls-7"
         width="128.15"
         height="206"
         id="rect232" />
    </g>
  </g>
</svg>
